\relax 
\providecommand\hyper@newdestlabel[2]{}
\providecommand\HyperFirstAtBeginDocument{\AtBeginDocument}
\HyperFirstAtBeginDocument{\ifx\hyper@anchor\@undefined
\global\let\oldcontentsline\contentsline
\gdef\contentsline#1#2#3#4{\oldcontentsline{#1}{#2}{#3}}
\global\let\oldnewlabel\newlabel
\gdef\newlabel#1#2{\newlabelxx{#1}#2}
\gdef\newlabelxx#1#2#3#4#5#6{\oldnewlabel{#1}{{#2}{#3}}}
\AtEndDocument{\ifx\hyper@anchor\@undefined
\let\contentsline\oldcontentsline
\let\newlabel\oldnewlabel
\fi}
\fi}
\global\let\hyper@last\relax 
\gdef\HyperFirstAtBeginDocument#1{#1}
\providecommand\HyField@AuxAddToFields[1]{}
\providecommand\HyField@AuxAddToCoFields[2]{}
\@writefile{toc}{\contentsline {section}{\numberline {1}Introduction}{1}{section.0.1}}
\@writefile{lof}{\contentsline {figure}{\numberline {1}{\ignorespaces 4 neighbor Markov Random field, where the green lines are the causal relations to $x_1$\relax }}{4}{figure.caption.7}}
\providecommand*\caption@xref[2]{\@setref\relax\@undefined{#1}}
\newlabel{fig:q2a1}{{1}{4}{4 neighbor Markov Random field, where the green lines are the causal relations to $x_1$\relax }{figure.caption.7}{}}
\@writefile{lof}{\contentsline {figure}{\numberline {2}{\ignorespaces 8 neighbor Markov Random field, where the green lines are the causal relations to $x_1$\relax }}{4}{figure.caption.8}}
\newlabel{fig:q2a2}{{2}{4}{8 neighbor Markov Random field, where the green lines are the causal relations to $x_1$\relax }{figure.caption.8}{}}
\@writefile{lof}{\contentsline {figure}{\numberline {3}{\ignorespaces Gibb's sampling of a 4-neighbor Ising model, with the left-most edge being observed variables (i.e. constants). In our algorithm the first R.V. we set is $x_{2,1}$. We get a value of $x_{i,j} \sim \qopname  \relax m{Pr}(markovBlanket(x_{i,j}))=\DOTSB \prod@ \slimits@ _{i,j\sim k,l}W_{(i,j),(k,l)}(x_{(i,j)}-x_{(k,l)})^2$, with $x_{1,1}$ being the observed value, and $x_{2,2}$ and $x_{3,1}$ being set to any arbitrary value since we have not sampled them yet.\relax }}{6}{figure.caption.11}}
\newlabel{fig:q2c}{{3}{6}{Gibb's sampling of a 4-neighbor Ising model, with the left-most edge being observed variables (i.e. constants). In our algorithm the first R.V. we set is $x_{2,1}$. We get a value of $x_{i,j} \sim \Pr (markovBlanket(x_{i,j}))=\prod _{i,j\sim k,l}W_{(i,j),(k,l)}(x_{(i,j)}-x_{(k,l)})^2$, with $x_{1,1}$ being the observed value, and $x_{2,2}$ and $x_{3,1}$ being set to any arbitrary value since we have not sampled them yet.\relax }{figure.caption.11}{}}
\@writefile{lof}{\contentsline {figure}{\numberline {4}{\ignorespaces Belief Network of the Drug Age Gender Recovery problem\relax }}{6}{figure.caption.14}}
\newlabel{fig:q3a}{{4}{6}{Belief Network of the Drug Age Gender Recovery problem\relax }{figure.caption.14}{}}
\@writefile{lof}{\contentsline {figure}{\numberline {5}{\ignorespaces Belief Network of the factorized joint distribution $A\leftarrow B\leftarrow C$\relax }}{7}{figure.caption.16}}
\newlabel{fig:q3b}{{5}{7}{Belief Network of the factorized joint distribution $A\leftarrow B\leftarrow C$\relax }{figure.caption.16}{}}
