\relax 
\providecommand\hyper@newdestlabel[2]{}
\providecommand\HyperFirstAtBeginDocument{\AtBeginDocument}
\HyperFirstAtBeginDocument{\ifx\hyper@anchor\@undefined
\global\let\oldcontentsline\contentsline
\gdef\contentsline#1#2#3#4{\oldcontentsline{#1}{#2}{#3}}
\global\let\oldnewlabel\newlabel
\gdef\newlabel#1#2{\newlabelxx{#1}#2}
\gdef\newlabelxx#1#2#3#4#5#6{\oldnewlabel{#1}{{#2}{#3}}}
\AtEndDocument{\ifx\hyper@anchor\@undefined
\let\contentsline\oldcontentsline
\let\newlabel\oldnewlabel
\fi}
\fi}
\global\let\hyper@last\relax 
\gdef\HyperFirstAtBeginDocument#1{#1}
\providecommand\HyField@AuxAddToFields[1]{}
\providecommand\HyField@AuxAddToCoFields[2]{}
\@writefile{toc}{\contentsline {section}{\numberline {1}Introduction}{1}{section.0.1}}
\@writefile{lof}{\contentsline {figure}{\numberline {1}{\ignorespaces RBF kernel with length scale of 0.1\relax }}{1}{figure.caption.4}}
\providecommand*\caption@xref[2]{\@setref\relax\@undefined{#1}}
\newlabel{fig:q1ai}{{1}{1}{RBF kernel with length scale of 0.1\relax }{figure.caption.4}{}}
\@writefile{lof}{\contentsline {figure}{\numberline {2}{\ignorespaces RBF kernel with length scale of 10\relax }}{1}{figure.caption.4}}
\newlabel{fig:q1ai2}{{2}{1}{RBF kernel with length scale of 10\relax }{figure.caption.4}{}}
\@writefile{lof}{\contentsline {figure}{\numberline {3}{\ignorespaces DotProduct kernel\relax }}{2}{figure.caption.6}}
\newlabel{fig:q1aii}{{3}{2}{DotProduct kernel\relax }{figure.caption.6}{}}
\@writefile{lof}{\contentsline {figure}{\numberline {4}{\ignorespaces Rational Quadratic kernel, initial length-scale = 0.1\relax }}{2}{figure.caption.8}}
\newlabel{fig:q1aiii}{{4}{2}{Rational Quadratic kernel, initial length-scale = 0.1\relax }{figure.caption.8}{}}
\@writefile{lof}{\contentsline {figure}{\numberline {5}{\ignorespaces Sum of RBF kernel and Rational Quadratic kernel, initial length-scale = 0.1 for both\relax }}{3}{figure.caption.10}}
\newlabel{fig:q1aiv}{{5}{3}{Sum of RBF kernel and Rational Quadratic kernel, initial length-scale = 0.1 for both\relax }{figure.caption.10}{}}
\@writefile{lof}{\contentsline {figure}{\numberline {6}{\ignorespaces RBF kernel with length scale of 0.1 and added noise\relax }}{4}{figure.caption.12}}
\newlabel{fig:q1bi}{{6}{4}{RBF kernel with length scale of 0.1 and added noise\relax }{figure.caption.12}{}}
\@writefile{lof}{\contentsline {figure}{\numberline {7}{\ignorespaces RBF kernel with length scale of 10 and added noise\relax }}{4}{figure.caption.12}}
\newlabel{fig:qb1rbf_ls10}{{7}{4}{RBF kernel with length scale of 10 and added noise\relax }{figure.caption.12}{}}
\@writefile{lof}{\contentsline {figure}{\numberline {8}{\ignorespaces Dot Product kernel with sigma squared of 0.5 and added noise\relax }}{4}{figure.caption.13}}
\newlabel{fig:Q1bi_dotprod}{{8}{4}{Dot Product kernel with sigma squared of 0.5 and added noise\relax }{figure.caption.13}{}}
\@writefile{lof}{\contentsline {figure}{\numberline {9}{\ignorespaces Rational quadratic kernel with length scale of 0.1 and added noise\relax }}{4}{figure.caption.13}}
\newlabel{fig:Q1bi_ratquad}{{9}{4}{Rational quadratic kernel with length scale of 0.1 and added noise\relax }{figure.caption.13}{}}
\@writefile{lof}{\contentsline {figure}{\numberline {10}{\ignorespaces Sum of RBF kernel and Rational Quadratic kernel, initial length-scale = 0.1 for both and added noise\relax }}{5}{figure.caption.14}}
\newlabel{fig:Q1bi_ratquad_rbf}{{10}{5}{Sum of RBF kernel and Rational Quadratic kernel, initial length-scale = 0.1 for both and added noise\relax }{figure.caption.14}{}}
\@writefile{lof}{\contentsline {figure}{\numberline {11}{\ignorespaces RBF kernel with length scale of 0.1 and White kernel with added noise\relax }}{5}{figure.caption.16}}
\newlabel{fig:q1bii}{{11}{5}{RBF kernel with length scale of 0.1 and White kernel with added noise\relax }{figure.caption.16}{}}
\@writefile{lof}{\contentsline {figure}{\numberline {12}{\ignorespaces RBF kernel with length scale of 10 and White kernel with added noise\relax }}{5}{figure.caption.16}}
\newlabel{fig:qbii_rbf_ls10}{{12}{5}{RBF kernel with length scale of 10 and White kernel with added noise\relax }{figure.caption.16}{}}
\@writefile{lof}{\contentsline {figure}{\numberline {13}{\ignorespaces Dot Product kernel with sigma squared of 0.5 and White kernel with added noise\relax }}{5}{figure.caption.17}}
\newlabel{fig:Q1bii_dotprod}{{13}{5}{Dot Product kernel with sigma squared of 0.5 and White kernel with added noise\relax }{figure.caption.17}{}}
\@writefile{lof}{\contentsline {figure}{\numberline {14}{\ignorespaces Rational quadratic kernel with length scale of 0.1 and White kernel with added noise\relax }}{5}{figure.caption.17}}
\newlabel{fig:Q1bii_ratquad}{{14}{5}{Rational quadratic kernel with length scale of 0.1 and White kernel with added noise\relax }{figure.caption.17}{}}
\@writefile{lof}{\contentsline {figure}{\numberline {15}{\ignorespaces Sum of White kernel, RBF kernel and Rational Quadratic kernel, initial length-scale = 0.1 for both and added noise\relax }}{6}{figure.caption.18}}
\newlabel{fig:Q1bii_ratquad_rbf}{{15}{6}{Sum of White kernel, RBF kernel and Rational Quadratic kernel, initial length-scale = 0.1 for both and added noise\relax }{figure.caption.18}{}}
\newlabel{eq:hessian}{{32}{12}{c)i)}{equation.0.1.32}{}}
\@writefile{lof}{\contentsline {figure}{\numberline {16}{\ignorespaces Thompson Sampling with a 5-armed bandit using Poisson Distributions\relax }}{16}{figure.caption.39}}
\newlabel{fig:TS_Poisson}{{16}{16}{Thompson Sampling with a 5-armed bandit using Poisson Distributions\relax }{figure.caption.39}{}}
\@writefile{lof}{\contentsline {figure}{\numberline {17}{\ignorespaces UCB for Bernoulli, delta = 0.5 $p_1=0.2$, $p_2=0.6$\relax }}{17}{figure.caption.41}}
\newlabel{fig:UCBp01p09d01}{{17}{17}{UCB for Bernoulli, delta = 0.5\\$p_1=0.2$, $p_2=0.6$\relax }{figure.caption.41}{}}
\@writefile{lof}{\contentsline {figure}{\numberline {18}{\ignorespaces UCB for Bernoulli, delta = 5e-5 $p_1=0.2$, $p_2=0.6$\relax }}{17}{figure.caption.41}}
\newlabel{fig:UCBp01p09d1e-10}{{18}{17}{UCB for Bernoulli, delta = 5e-5\\$p_1=0.2$, $p_2=0.6$\relax }{figure.caption.41}{}}
\@writefile{lof}{\contentsline {figure}{\numberline {19}{\ignorespaces UCB for Bernoulli, delta = 0.5 $p_1=0.35$, $p_2=0.45$\relax }}{17}{figure.caption.42}}
\newlabel{fig:UCBp01p02d01}{{19}{17}{UCB for Bernoulli, delta = 0.5\\$p_1=0.35$, $p_2=0.45$\relax }{figure.caption.42}{}}
\@writefile{lof}{\contentsline {figure}{\numberline {20}{\ignorespaces UCB for Bernoulli, delta = 5e-5 $p_1=0.35$, $p_2=0.45$\relax }}{17}{figure.caption.42}}
\newlabel{fig:UCBp01p02d1e-10}{{20}{17}{UCB for Bernoulli, delta = 5e-5\\$p_1=0.35$, $p_2=0.45$\relax }{figure.caption.42}{}}
\@writefile{lof}{\contentsline {figure}{\numberline {21}{\ignorespaces Ratios of maximum regret over minimum regret for varying deltas\relax }}{17}{figure.caption.43}}
\newlabel{fig:rr}{{21}{17}{Ratios of maximum regret over minimum regret for varying deltas\relax }{figure.caption.43}{}}
