\relax 
\providecommand\hyper@newdestlabel[2]{}
\providecommand\HyperFirstAtBeginDocument{\AtBeginDocument}
\HyperFirstAtBeginDocument{\ifx\hyper@anchor\@undefined
\global\let\oldcontentsline\contentsline
\gdef\contentsline#1#2#3#4{\oldcontentsline{#1}{#2}{#3}}
\global\let\oldnewlabel\newlabel
\gdef\newlabel#1#2{\newlabelxx{#1}#2}
\gdef\newlabelxx#1#2#3#4#5#6{\oldnewlabel{#1}{{#2}{#3}}}
\AtEndDocument{\ifx\hyper@anchor\@undefined
\let\contentsline\oldcontentsline
\let\newlabel\oldnewlabel
\fi}
\fi}
\global\let\hyper@last\relax 
\gdef\HyperFirstAtBeginDocument#1{#1}
\providecommand\HyField@AuxAddToFields[1]{}
\providecommand\HyField@AuxAddToCoFields[2]{}
\@writefile{toc}{\contentsline {section}{\numberline {1}Q1}{1}{section.0.1}}
\@writefile{toc}{\contentsline {subsection}{\numberline {1.1}a)}{1}{subsection.0.1.1}}
\@writefile{toc}{\contentsline {subsection}{\numberline {1.2}b)}{1}{subsection.0.1.2}}
\@writefile{lof}{\contentsline {figure}{\numberline {1}{\ignorespaces RMSE for various lambdas using L2 regularization\relax }}{1}{figure.caption.1}}
\providecommand*\caption@xref[2]{\@setref\relax\@undefined{#1}}
\newlabel{fig:q1b1}{{1}{1}{RMSE for various lambdas using L2 regularization\relax }{figure.caption.1}{}}
\@writefile{lof}{\contentsline {figure}{\numberline {2}{\ignorespaces Norm of the weights for various lambdas using L2 regularization\relax }}{2}{figure.caption.2}}
\newlabel{fig:q1b2}{{2}{2}{Norm of the weights for various lambdas using L2 regularization\relax }{figure.caption.2}{}}
\@writefile{lof}{\contentsline {figure}{\numberline {3}{\ignorespaces Weights for various lambdas using L2 regularization, where each weight decreases when we increase lambda.\relax }}{2}{figure.caption.3}}
\newlabel{fig:q1b3}{{3}{2}{Weights for various lambdas using L2 regularization, where each weight decreases when we increase lambda.\relax }{figure.caption.3}{}}
\@writefile{toc}{\contentsline {subsection}{\numberline {1.3}c)}{3}{subsection.0.1.3}}
\@writefile{lof}{\contentsline {figure}{\numberline {4}{\ignorespaces RMSE for various lambdas using L2 regularization and Cross Validation\relax }}{3}{figure.caption.4}}
\newlabel{fig:q1c1}{{4}{3}{RMSE for various lambdas using L2 regularization and Cross Validation\relax }{figure.caption.4}{}}
\@writefile{toc}{\contentsline {subsection}{\numberline {1.4}d)}{3}{subsection.0.1.4}}
\@writefile{toc}{\contentsline {subsection}{\numberline {1.5}f)}{3}{subsection.0.1.5}}
\@writefile{lof}{\contentsline {figure}{\numberline {5}{\ignorespaces Cost function for various sigmas using a Gaussian Kernel regularization with $\mu $ spread across [-1,1], where a sigma of 1 is optimal.\relax }}{4}{figure.caption.5}}
\newlabel{fig:q1f}{{5}{4}{Cost function for various sigmas using a Gaussian Kernel regularization with $\mu $ spread across [-1,1], where a sigma of 1 is optimal.\relax }{figure.caption.5}{}}
\@writefile{toc}{\contentsline {subsection}{\numberline {1.6}g)}{4}{subsection.0.1.6}}
\@writefile{lof}{\contentsline {figure}{\numberline {6}{\ignorespaces Cost function for various sigmas using a Gaussian Kernel regularization with $\mu $ picked using a K-Means solution with our X data.\relax }}{5}{figure.caption.6}}
\newlabel{fig:q1g}{{6}{5}{Cost function for various sigmas using a Gaussian Kernel regularization with $\mu $ picked using a K-Means solution with our X data.\relax }{figure.caption.6}{}}
\@writefile{toc}{\contentsline {subsection}{\numberline {1.7}h)}{5}{subsection.0.1.7}}
\@writefile{toc}{\contentsline {subsection}{\numberline {1.8}i)}{5}{subsection.0.1.8}}
\@writefile{lof}{\contentsline {figure}{\numberline {7}{\ignorespaces Costs for various polynomial degrees\relax }}{6}{figure.caption.7}}
\newlabel{fig:q1i_dimensions}{{7}{6}{Costs for various polynomial degrees\relax }{figure.caption.7}{}}
\@writefile{lof}{\contentsline {figure}{\numberline {8}{\ignorespaces Curve fittings for various polynomial degrees\relax }}{6}{figure.caption.8}}
\newlabel{fig:q1i_costDim}{{8}{6}{Curve fittings for various polynomial degrees\relax }{figure.caption.8}{}}
\@writefile{lof}{\contentsline {figure}{\numberline {9}{\ignorespaces Weights for L1 regularization at 9th order polynomial\relax }}{6}{figure.caption.9}}
\newlabel{fig:CVWeights_Q1i_l1}{{9}{6}{Weights for L1 regularization at 9th order polynomial\relax }{figure.caption.9}{}}
\@writefile{lof}{\contentsline {figure}{\numberline {10}{\ignorespaces Weights for L1 regularization at 9th order polynomial\relax }}{7}{figure.caption.10}}
\newlabel{fig:CostFcn_Q1i_l1}{{10}{7}{Weights for L1 regularization at 9th order polynomial\relax }{figure.caption.10}{}}
\@writefile{lof}{\contentsline {figure}{\numberline {11}{\ignorespaces Curve fittings for L1 regularizer at 9th order polynomial\relax }}{7}{figure.caption.11}}
\newlabel{fig:Fittings_Q1i_l1}{{11}{7}{Curve fittings for L1 regularizer at 9th order polynomial\relax }{figure.caption.11}{}}
\@writefile{lof}{\contentsline {figure}{\numberline {12}{\ignorespaces Weights for L2 regularization at 9th order polynomial\relax }}{7}{figure.caption.12}}
\newlabel{fig:CVWeights_Q1i_l2}{{12}{7}{Weights for L2 regularization at 9th order polynomial\relax }{figure.caption.12}{}}
\@writefile{lof}{\contentsline {figure}{\numberline {13}{\ignorespaces Cost for L2 regularization with 9th order polynomial\relax }}{8}{figure.caption.13}}
\newlabel{fig:CostFcn_Q1i_l2}{{13}{8}{Cost for L2 regularization with 9th order polynomial\relax }{figure.caption.13}{}}
\@writefile{lof}{\contentsline {figure}{\numberline {14}{\ignorespaces Curve fittings for L2 regularization with 9th order polynomial\relax }}{8}{figure.caption.14}}
\newlabel{fig:Fittings_Q1i_l2}{{14}{8}{Curve fittings for L2 regularization with 9th order polynomial\relax }{figure.caption.14}{}}
\@writefile{toc}{\contentsline {section}{\numberline {2}Q2: Maximum likelihood}{8}{section.0.2}}
\newlabel{fig:Q2}{{\caption@xref {fig:Q2}{ on input line 154}}{9}{Q2: Maximum likelihood}{figure.caption.15}{}}
\@writefile{toc}{\contentsline {section}{\numberline {3}Q3: Bayesian analysis and biased coin}{10}{section.0.3}}
\newlabel{fig:posterior}{{\caption@xref {fig:posterior}{ on input line 195}}{11}{Q3: Bayesian analysis and biased coin}{figure.caption.16}{}}
\newlabel{fig:meanAndMode}{{\caption@xref {fig:meanAndMode}{ on input line 200}}{11}{Q3: Bayesian analysis and biased coin}{figure.caption.17}{}}
\@writefile{lof}{\contentsline {figure}{\numberline {15}{\ignorespaces Probability density function of both the prior and posterior beta distributions.\relax }}{12}{figure.caption.18}}
\newlabel{fig:posteriorDistribution}{{15}{12}{Probability density function of both the prior and posterior beta distributions.\relax }{figure.caption.18}{}}
\@writefile{toc}{\contentsline {section}{\numberline {4}Q4: Multivariate Regression}{12}{section.0.4}}
\@writefile{toc}{\contentsline {subsection}{\numberline {4.1}a)}{12}{subsection.0.4.1}}
\newlabel{fig:q4a}{{\caption@xref {fig:q4a}{ on input line 215}}{13}{a)}{figure.caption.19}{}}
\@writefile{toc}{\contentsline {subsection}{\numberline {4.2}b)}{13}{subsection.0.4.2}}
\@writefile{lof}{\contentsline {figure}{\numberline {16}{\ignorespaces Q4b\relax }}{14}{figure.caption.20}}
\newlabel{fig:q4b}{{16}{14}{Q4b\relax }{figure.caption.20}{}}
\@writefile{toc}{\contentsline {section}{\numberline {5}Q5: Kernels and RKHS}{14}{section.0.5}}
\@writefile{toc}{\contentsline {subsection}{\numberline {5.1}a)}{14}{subsection.0.5.1}}
\@writefile{lof}{\contentsline {figure}{\numberline {17}{\ignorespaces 3 plots of different functions $f : \chi \to \mathbb  {R}$ from $k = U\bullet V$\relax }}{15}{figure.caption.21}}
\newlabel{fig:q5a}{{17}{15}{3 plots of different functions $f : \chi \to \mathbb {R}$ from $k = U\bullet V$\relax }{figure.caption.21}{}}
\@writefile{lof}{\contentsline {figure}{\numberline {18}{\ignorespaces Norm of each possible value of k(u,v), with the norm of the three functions chosen in this assignment as red dots\relax }}{16}{figure.caption.22}}
\newlabel{fig:q5aNorm}{{18}{16}{Norm of each possible value of k(u,v), with the norm of the three functions chosen in this assignment as red dots\relax }{figure.caption.22}{}}
\@writefile{toc}{\contentsline {subsection}{\numberline {5.2}b)}{16}{subsection.0.5.2}}
\newlabel{fig:q5b}{{\caption@xref {fig:q5b}{ on input line 256}}{17}{b)}{figure.caption.23}{}}
\@writefile{lof}{\contentsline {figure}{\numberline {19}{\ignorespaces Rho = 0.1\relax }}{17}{figure.caption.24}}
\newlabel{fig:q5b_p0.1}{{19}{17}{Rho = 0.1\relax }{figure.caption.24}{}}
\@writefile{lof}{\contentsline {figure}{\numberline {20}{\ignorespaces Rho = 0.5\relax }}{18}{figure.caption.25}}
\newlabel{fig:q5b_p0.5}{{20}{18}{Rho = 0.5\relax }{figure.caption.25}{}}
\@writefile{lof}{\contentsline {figure}{\numberline {21}{\ignorespaces Rho = 1\relax }}{18}{figure.caption.26}}
\newlabel{fig:q5b_p1}{{21}{18}{Rho = 1\relax }{figure.caption.26}{}}
